com\example\demo\DemoApplication.class
net\techu\ProductosV4Controller.class
com\example\demo\BeanPersonalizacion.class
net\techu\data\ProductoRepository.class
net\techu\ProductosController.class
com\example\demo\SaludoController.class
net\techu\SaludoController.class
net\techu\data\ProductoMongo.class
net\techu\BeanPersonalizacion.class
net\techu\BeanContexto.class
net\techu\data\SwaggerConfig.class
net\techu\ProductosV3Controller.class
com\example\demo\BeanContexto.class
net\techu\TiendaApplication.class
net\techu\ProductosV2Controller.class
net\techu\Producto.class
